﻿<?xml version="1.0" encoding="UTF-8"?>
<TestRun id="9aa8dbda-6614-4029-acdb-33a72e928b8c" name="adm@WIN-9KSLI3ANNIF 2013-09-29 19:42:14" runUser="WIN-9KSLI3ANNIF\adm" xmlns="http://microsoft.com/schemas/VisualStudio/TeamTest/2010">
  <TestSettings name="Local" id="f789abc8-73bb-4f73-92a6-32f2c32f0bdb">
    <Description>These are default test settings for a local test run.</Description>
    <Deployment enabled="false" runDeploymentRoot="adm_WIN-9KSLI3ANNIF 2013-09-29 19_42_14">
      <DeploymentItem filename="C:\Users\adm\repos\sempomat\mathSearchWeb\mathsearch\mathsearch\bin\Debug\mathsearch.dll" />
    </Deployment>
    <Execution>
      <TestTypeSpecific />
      <AgentRule name="Execution Agents">
      </AgentRule>
    </Execution>
  </TestSettings>
  <Times creation="2013-09-29T19:42:14.3567460+04:00" queuing="2013-09-29T19:42:16.0658437+04:00" start="2013-09-29T19:42:16.6148751+04:00" finish="2013-09-29T19:42:50.6848238+04:00" />
  <ResultSummary outcome="Completed">
    <Counters total="10" executed="10" passed="10" error="0" failed="0" timeout="0" aborted="0" inconclusive="0" passedButRunAborted="0" notRunnable="0" notExecuted="0" disconnected="0" warning="0" completed="0" inProgress="0" pending="0" />
  </ResultSummary>
  <TestDefinitions>
    <UnitTest name="MeasureTest" storage="c:\users\adm\repos\sempomat\mathsearchweb\unittest\bin\debug\unittest.dll" id="e2f65998-3b20-0e26-38b8-52c9981a2483">
      <Execution id="ede85cb2-fe0e-409e-be1e-67212c828260" />
      <TestMethod codeBase="C:/Users/adm/repos/sempomat/mathSearchWeb/UnitTest/bin/Debug/UnitTest.DLL" adapterTypeName="Microsoft.VisualStudio.TestTools.TestTypes.Unit.UnitTestAdapter, Microsoft.VisualStudio.QualityTools.Tips.UnitTest.Adapter, Version=10.0.0.0, Culture=neutral, PublicKeyToken=b03f5f7f11d50a3a" className="UnitTest.CreateWaveRules, UnitTest, Version=1.0.0.0, Culture=neutral, PublicKeyToken=null" name="MeasureTest" />
    </UnitTest>
    <UnitTest name="EqTest10and12Invert" storage="c:\users\adm\repos\sempomat\mathsearchweb\unittest\bin\debug\unittest.dll" id="ad5ce314-cedb-b2e4-6bf8-52fbde74cdea">
      <Execution id="cf92b1ec-0eaf-4c59-a0ee-5c653ec40724" />
      <TestMethod codeBase="C:/Users/adm/repos/sempomat/mathSearchWeb/UnitTest/bin/Debug/UnitTest.DLL" adapterTypeName="Microsoft.VisualStudio.TestTools.TestTypes.Unit.UnitTestAdapter, Microsoft.VisualStudio.QualityTools.Tips.UnitTest.Adapter, Version=10.0.0.0, Culture=neutral, PublicKeyToken=b03f5f7f11d50a3a" className="UnitTest.EqTest, UnitTest, Version=1.0.0.0, Culture=neutral, PublicKeyToken=null" name="EqTest10and12Invert" />
    </UnitTest>
    <UnitTest name="SkeletonChangedEventTest" storage="c:\users\adm\repos\sempomat\mathsearchweb\unittest\bin\debug\unittest.dll" id="85e6bcb2-df52-7102-3542-7cc42b7e17f2">
      <Execution id="9fa69e53-f0c3-4c2e-b8cf-f7fd9dc4f212" />
      <TestMethod codeBase="C:/Users/adm/repos/sempomat/mathSearchWeb/UnitTest/bin/Debug/UnitTest.DLL" adapterTypeName="Microsoft.VisualStudio.TestTools.TestTypes.Unit.UnitTestAdapter, Microsoft.VisualStudio.QualityTools.Tips.UnitTest.Adapter, Version=10.0.0.0, Culture=neutral, PublicKeyToken=b03f5f7f11d50a3a" className="UnitTest.CreateWaveRules, UnitTest, Version=1.0.0.0, Culture=neutral, PublicKeyToken=null" name="SkeletonChangedEventTest" />
    </UnitTest>
    <UnitTest name="WaveRuleCreation" storage="c:\users\adm\repos\sempomat\mathsearchweb\unittest\bin\debug\unittest.dll" id="270a9c77-5645-c159-c550-817c41a2f3a6">
      <Execution id="105c400a-c41a-436f-9902-c712fa975a82" />
      <TestMethod codeBase="C:/Users/adm/repos/sempomat/mathSearchWeb/UnitTest/bin/Debug/UnitTest.DLL" adapterTypeName="Microsoft.VisualStudio.TestTools.TestTypes.Unit.UnitTestAdapter, Microsoft.VisualStudio.QualityTools.Tips.UnitTest.Adapter, Version=10.0.0.0, Culture=neutral, PublicKeyToken=b03f5f7f11d50a3a" className="UnitTest.CreateWaveRules, UnitTest, Version=1.0.0.0, Culture=neutral, PublicKeyToken=null" name="WaveRuleCreation" />
    </UnitTest>
    <UnitTest name="ShrunkMeasureTest" storage="c:\users\adm\repos\sempomat\mathsearchweb\unittest\bin\debug\unittest.dll" id="576df516-a06e-cbda-4372-6f7c3fff16bb">
      <Execution id="03574a46-4ffa-4ba6-925f-0f73b46ede8a" />
      <TestMethod codeBase="C:/Users/adm/repos/sempomat/mathSearchWeb/UnitTest/bin/Debug/UnitTest.DLL" adapterTypeName="Microsoft.VisualStudio.TestTools.TestTypes.Unit.UnitTestAdapter, Microsoft.VisualStudio.QualityTools.Tips.UnitTest.Adapter, Version=10.0.0.0, Culture=neutral, PublicKeyToken=b03f5f7f11d50a3a" className="UnitTest.CreateWaveRules, UnitTest, Version=1.0.0.0, Culture=neutral, PublicKeyToken=null" name="ShrunkMeasureTest" />
    </UnitTest>
    <UnitTest name="AnnotationsTest" storage="c:\users\adm\repos\sempomat\mathsearchweb\unittest\bin\debug\unittest.dll" id="7852ec17-7c31-d106-ae6d-07757101c242">
      <Execution id="baa1e729-e57f-4ad3-a3bb-89c37acfa8f6" />
      <TestMethod codeBase="C:/Users/adm/repos/sempomat/mathSearchWeb/UnitTest/bin/Debug/UnitTest.DLL" adapterTypeName="Microsoft.VisualStudio.TestTools.TestTypes.Unit.UnitTestAdapter, Microsoft.VisualStudio.QualityTools.Tips.UnitTest.Adapter, Version=10.0.0.0, Culture=neutral, PublicKeyToken=b03f5f7f11d50a3a" className="UnitTest.EqTest, UnitTest, Version=1.0.0.0, Culture=neutral, PublicKeyToken=null" name="AnnotationsTest" />
    </UnitTest>
    <UnitTest name="EqTest9and10Invert" storage="c:\users\adm\repos\sempomat\mathsearchweb\unittest\bin\debug\unittest.dll" id="fd301a13-00ce-847a-d5d8-c839f7d7638a">
      <Execution id="d0d49e90-be2a-4a84-8e5b-652f84b31d77" />
      <TestMethod codeBase="C:/Users/adm/repos/sempomat/mathSearchWeb/UnitTest/bin/Debug/UnitTest.DLL" adapterTypeName="Microsoft.VisualStudio.TestTools.TestTypes.Unit.UnitTestAdapter, Microsoft.VisualStudio.QualityTools.Tips.UnitTest.Adapter, Version=10.0.0.0, Culture=neutral, PublicKeyToken=b03f5f7f11d50a3a" className="UnitTest.EqTest, UnitTest, Version=1.0.0.0, Culture=neutral, PublicKeyToken=null" name="EqTest9and10Invert" />
    </UnitTest>
    <UnitTest name="EqTest10and9" storage="c:\users\adm\repos\sempomat\mathsearchweb\unittest\bin\debug\unittest.dll" id="c4c68891-9565-84fe-3e09-f64c27c76596">
      <Execution id="16414aa9-9950-4f7d-9607-57a84c58080a" />
      <TestMethod codeBase="C:/Users/adm/repos/sempomat/mathSearchWeb/UnitTest/bin/Debug/UnitTest.DLL" adapterTypeName="Microsoft.VisualStudio.TestTools.TestTypes.Unit.UnitTestAdapter, Microsoft.VisualStudio.QualityTools.Tips.UnitTest.Adapter, Version=10.0.0.0, Culture=neutral, PublicKeyToken=b03f5f7f11d50a3a" className="UnitTest.EqTest, UnitTest, Version=1.0.0.0, Culture=neutral, PublicKeyToken=null" name="EqTest10and9" />
    </UnitTest>
    <UnitTest name="EqTest9and10" storage="c:\users\adm\repos\sempomat\mathsearchweb\unittest\bin\debug\unittest.dll" id="285714f1-3b5b-ec00-6271-e623a56ca068">
      <Execution id="0a52071e-8714-46f5-a99d-201e9236e684" />
      <TestMethod codeBase="C:/Users/adm/repos/sempomat/mathSearchWeb/UnitTest/bin/Debug/UnitTest.DLL" adapterTypeName="Microsoft.VisualStudio.TestTools.TestTypes.Unit.UnitTestAdapter, Microsoft.VisualStudio.QualityTools.Tips.UnitTest.Adapter, Version=10.0.0.0, Culture=neutral, PublicKeyToken=b03f5f7f11d50a3a" className="UnitTest.EqTest, UnitTest, Version=1.0.0.0, Culture=neutral, PublicKeyToken=null" name="EqTest9and10" />
    </UnitTest>
    <UnitTest name="EqTest10and12" storage="c:\users\adm\repos\sempomat\mathsearchweb\unittest\bin\debug\unittest.dll" id="6fcfd395-07e8-0559-1476-c9b959558f3f">
      <Execution id="bea847fd-dde0-4407-b032-6a891af4b3d1" />
      <TestMethod codeBase="C:/Users/adm/repos/sempomat/mathSearchWeb/UnitTest/bin/Debug/UnitTest.DLL" adapterTypeName="Microsoft.VisualStudio.TestTools.TestTypes.Unit.UnitTestAdapter, Microsoft.VisualStudio.QualityTools.Tips.UnitTest.Adapter, Version=10.0.0.0, Culture=neutral, PublicKeyToken=b03f5f7f11d50a3a" className="UnitTest.EqTest, UnitTest, Version=1.0.0.0, Culture=neutral, PublicKeyToken=null" name="EqTest10and12" />
    </UnitTest>
  </TestDefinitions>
  <TestLists>
    <TestList name="Results Not in a List" id="8c84fa94-04c1-424b-9868-57a2d4851a1d" />
    <TestList name="All Loaded Results" id="19431567-8539-422a-85d7-44ee4e166bda" />
  </TestLists>
  <TestEntries>
    <TestEntry testId="7852ec17-7c31-d106-ae6d-07757101c242" executionId="baa1e729-e57f-4ad3-a3bb-89c37acfa8f6" testListId="8c84fa94-04c1-424b-9868-57a2d4851a1d" />
    <TestEntry testId="285714f1-3b5b-ec00-6271-e623a56ca068" executionId="0a52071e-8714-46f5-a99d-201e9236e684" testListId="8c84fa94-04c1-424b-9868-57a2d4851a1d" />
    <TestEntry testId="c4c68891-9565-84fe-3e09-f64c27c76596" executionId="16414aa9-9950-4f7d-9607-57a84c58080a" testListId="8c84fa94-04c1-424b-9868-57a2d4851a1d" />
    <TestEntry testId="6fcfd395-07e8-0559-1476-c9b959558f3f" executionId="bea847fd-dde0-4407-b032-6a891af4b3d1" testListId="8c84fa94-04c1-424b-9868-57a2d4851a1d" />
    <TestEntry testId="e2f65998-3b20-0e26-38b8-52c9981a2483" executionId="ede85cb2-fe0e-409e-be1e-67212c828260" testListId="8c84fa94-04c1-424b-9868-57a2d4851a1d" />
    <TestEntry testId="85e6bcb2-df52-7102-3542-7cc42b7e17f2" executionId="9fa69e53-f0c3-4c2e-b8cf-f7fd9dc4f212" testListId="8c84fa94-04c1-424b-9868-57a2d4851a1d" />
    <TestEntry testId="270a9c77-5645-c159-c550-817c41a2f3a6" executionId="105c400a-c41a-436f-9902-c712fa975a82" testListId="8c84fa94-04c1-424b-9868-57a2d4851a1d" />
    <TestEntry testId="fd301a13-00ce-847a-d5d8-c839f7d7638a" executionId="d0d49e90-be2a-4a84-8e5b-652f84b31d77" testListId="8c84fa94-04c1-424b-9868-57a2d4851a1d" />
    <TestEntry testId="ad5ce314-cedb-b2e4-6bf8-52fbde74cdea" executionId="cf92b1ec-0eaf-4c59-a0ee-5c653ec40724" testListId="8c84fa94-04c1-424b-9868-57a2d4851a1d" />
    <TestEntry testId="576df516-a06e-cbda-4372-6f7c3fff16bb" executionId="03574a46-4ffa-4ba6-925f-0f73b46ede8a" testListId="8c84fa94-04c1-424b-9868-57a2d4851a1d" />
  </TestEntries>
  <Results>
    <UnitTestResult executionId="baa1e729-e57f-4ad3-a3bb-89c37acfa8f6" testId="7852ec17-7c31-d106-ae6d-07757101c242" testName="AnnotationsTest" computerName="WIN-9KSLI3ANNIF" duration="00:00:03.5909827" startTime="2013-09-29T19:42:16.9298931+04:00" endTime="2013-09-29T19:42:22.6242188+04:00" testType="13cdc9d9-ddb5-4fa4-a97d-d965ccfc6d4b" outcome="Passed" testListId="8c84fa94-04c1-424b-9868-57a2d4851a1d" relativeResultsDirectory="baa1e729-e57f-4ad3-a3bb-89c37acfa8f6">
      <Output>
        <StdOut>Unification unsorted results count: 1589
[19:42:18]Journal init

1589</StdOut>
      </Output>
    </UnitTestResult>
    <UnitTestResult executionId="0a52071e-8714-46f5-a99d-201e9236e684" testId="285714f1-3b5b-ec00-6271-e623a56ca068" testName="EqTest9and10" computerName="WIN-9KSLI3ANNIF" duration="00:00:00.6944735" startTime="2013-09-29T19:42:23.3162584+04:00" endTime="2013-09-29T19:42:24.0693015+04:00" testType="13cdc9d9-ddb5-4fa4-a97d-d965ccfc6d4b" outcome="Passed" testListId="8c84fa94-04c1-424b-9868-57a2d4851a1d" relativeResultsDirectory="0a52071e-8714-46f5-a99d-201e9236e684">
      <Output>
        <StdOut>[19:42:23]distrib1#25
[19:42:23]WAVERULEVARa times WAVERULEVARc !plus! !WAVERULEVARc! --&gt;!WAVERULEVARa! !times! !WAVERULEVARc! !plus! WAVERULEVARa times WAVERULEVARc 
[19:42:23]distrib1#24
[19:42:23]WAVERULEVARa times !WAVERULEVARb! !plus! WAVERULEVARc --&gt;!WAVERULEVARa! !times! !WAVERULEVARb! !plus! WAVERULEVARa times WAVERULEVARc 
[19:42:23]distrib2#24
[19:42:23]!WAVERULEVARa! !times! WAVERULEVARb plus !WAVERULEVARa! !times! WAVERULEVARc --&gt;!WAVERULEVARa! !times! WAVERULEVARb plus WAVERULEVARc 
[19:42:23]distrib2#18
[19:42:23]!WAVERULEVARa! !times! !WAVERULEVARa! !times! !WAVERULEVARc! !plus! WAVERULEVARa times WAVERULEVARc --&gt;!WAVERULEVARa! !times! WAVERULEVARa times WAVERULEVARc !plus! !WAVERULEVARc! 
[19:42:23]distrib2#7
[19:42:23]!WAVERULEVARc! !times! !WAVERULEVARb! !plus! WAVERULEVARc !times! !WAVERULEVARc! --&gt;!WAVERULEVARc! !times! !WAVERULEVARb! !plus! WAVERULEVARc 
[19:42:23]distrib2#4
[19:42:23]!WAVERULEVARa! !times! !WAVERULEVARb! !plus! !WAVERULEVARa! !times! WAVERULEVARa --&gt;WAVERULEVARa !times! !WAVERULEVARb! !plus! !WAVERULEVARa! 
[19:42:23]distrib2#9
[19:42:23]!WAVERULEVARa! !times! !WAVERULEVARb! !plus! WAVERULEVARa !times! !WAVERULEVARc! --&gt;WAVERULEVARa !times! !WAVERULEVARb! !plus! !WAVERULEVARc! 
[19:42:23]distrib2#3
[19:42:23]!WAVERULEVARa! !times! !WAVERULEVARb! !plus! !WAVERULEVARa! !times! WAVERULEVARb --&gt;!WAVERULEVARa! !times! WAVERULEVARb !plus! !WAVERULEVARb! 
[19:42:23]distrib2#5
[19:42:23]!WAVERULEVARb! !plus! !WAVERULEVARc! !times! !WAVERULEVARb! !plus! WAVERULEVARb plus WAVERULEVARc !times! !WAVERULEVARc! --&gt;!WAVERULEVARb! !plus! !WAVERULEVARc! !times! WAVERULEVARb plus WAVERULEVARc 
[19:42:23]distrib2#27
[19:42:23]!WAVERULEVARc! !times! WAVERULEVARb plus WAVERULEVARc !times! !WAVERULEVARc! --&gt;!WAVERULEVARc! !times! WAVERULEVARb plus WAVERULEVARc 
[19:42:23]distrib2#26
[19:42:23]WAVERULEVARc !times! !WAVERULEVARc! plus WAVERULEVARc !times! !WAVERULEVARc! --&gt;!WAVERULEVARc! !times! WAVERULEVARc plus WAVERULEVARc 
[19:42:23]distrib2#25
[19:42:23]WAVERULEVARb !times! !WAVERULEVARb! plus !WAVERULEVARb! !times! WAVERULEVARc --&gt;!WAVERULEVARb! !times! WAVERULEVARb plus WAVERULEVARc 
[19:42:23]distrib2#19
[19:42:23]!newvar1! !times! !newvar1! !times! !newvar2! !plus! newvar1 times newvar2 --&gt;!newvar1! !times! newvar1 times newvar2 !plus! !newvar2! 
[19:42:23]distrib2#2
[19:42:23]!WAVERULEVARa! !times! !WAVERULEVARb! !plus! !WAVERULEVARa! !times! WAVERULEVARc --&gt;!WAVERULEVARa! !times! !WAVERULEVARb! !plus! WAVERULEVARc 
[19:42:23]distrib2#8
[19:42:23]!WAVERULEVARb! !times! !WAVERULEVARb! !plus! WAVERULEVARb !times! !WAVERULEVARc! --&gt;!WAVERULEVARb! !times! WAVERULEVARb !plus! !WAVERULEVARc! 
[19:42:23]mulassoc1#36
[19:42:23]WAVERULEVARa times WAVERULEVARb !times! !WAVERULEVARc! --&gt;WAVERULEVARa times WAVERULEVARb !times! !WAVERULEVARc! 
[19:42:23]mulassoc1#35
[19:42:23]WAVERULEVARa times !WAVERULEVARb! !times! WAVERULEVARb --&gt;WAVERULEVARa times WAVERULEVARb !times! !WAVERULEVARb! 
[19:42:23]mulassoc2#33
[19:42:23]WAVERULEVARb !times! !WAVERULEVARb! times WAVERULEVARc --&gt;!WAVERULEVARb! !times! WAVERULEVARb times WAVERULEVARc 
[19:42:23]mulassoc2#32
[19:42:23]!WAVERULEVARa! !times! WAVERULEVARb times WAVERULEVARc --&gt;!WAVERULEVARa! !times! WAVERULEVARb times WAVERULEVARc 
[19:42:23]one1#1
[19:42:23]WAVERULEVARa !times! !1! --&gt;WAVERULEVARa 
[19:42:23]one1#0
[19:42:23]!1! !times! 1 --&gt;1 
[19:42:23]sumassoc1#33
[19:42:23]WAVERULEVARb !plus! !WAVERULEVARb! plus WAVERULEVARc --&gt;!WAVERULEVARb! !plus! WAVERULEVARb plus WAVERULEVARc 
[19:42:23]sumassoc1#32
[19:42:23]!WAVERULEVARa! !plus! WAVERULEVARb plus WAVERULEVARc --&gt;!WAVERULEVARa! !plus! WAVERULEVARb plus WAVERULEVARc 
[19:42:23]sumassoc2#36
[19:42:23]WAVERULEVARa plus WAVERULEVARb !plus! !WAVERULEVARc! --&gt;WAVERULEVARa plus WAVERULEVARb !plus! !WAVERULEVARc! 
[19:42:23]sumassoc2#35
[19:42:23]WAVERULEVARa plus !WAVERULEVARb! !plus! WAVERULEVARb --&gt;WAVERULEVARa plus WAVERULEVARb !plus! !WAVERULEVARb! 
[19:42:23]zero1#1
[19:42:23]WAVERULEVARa !plus! !0! --&gt;WAVERULEVARa 
[19:42:23]zero1#0
[19:42:23]!0! !plus! 0 --&gt;0 
[19:42:24]Got &gt;0,85 stopping annotation proccess...
[19:42:24]Annotation finished

0,882352941176471 675,0386 ms</StdOut>
      </Output>
    </UnitTestResult>
    <UnitTestResult executionId="16414aa9-9950-4f7d-9607-57a84c58080a" testId="c4c68891-9565-84fe-3e09-f64c27c76596" testName="EqTest10and9" computerName="WIN-9KSLI3ANNIF" duration="00:00:00.6204618" startTime="2013-09-29T19:42:24.1493061+04:00" endTime="2013-09-29T19:42:24.8343453+04:00" testType="13cdc9d9-ddb5-4fa4-a97d-d965ccfc6d4b" outcome="Passed" testListId="8c84fa94-04c1-424b-9868-57a2d4851a1d" relativeResultsDirectory="16414aa9-9950-4f7d-9607-57a84c58080a">
      <Output>
        <StdOut>[19:42:24]distrib1#25
[19:42:24]WAVERULEVARa times WAVERULEVARc !plus! !WAVERULEVARc! --&gt;!WAVERULEVARa! !times! !WAVERULEVARc! !plus! WAVERULEVARa times WAVERULEVARc 
[19:42:24]distrib1#24
[19:42:24]WAVERULEVARa times !WAVERULEVARb! !plus! WAVERULEVARc --&gt;!WAVERULEVARa! !times! !WAVERULEVARb! !plus! WAVERULEVARa times WAVERULEVARc 
[19:42:24]distrib2#24
[19:42:24]!WAVERULEVARa! !times! WAVERULEVARb plus !WAVERULEVARa! !times! WAVERULEVARc --&gt;!WAVERULEVARa! !times! WAVERULEVARb plus WAVERULEVARc 
[19:42:24]distrib2#18
[19:42:24]!WAVERULEVARa! !times! !WAVERULEVARa! !times! !WAVERULEVARc! !plus! WAVERULEVARa times WAVERULEVARc --&gt;!WAVERULEVARa! !times! WAVERULEVARa times WAVERULEVARc !plus! !WAVERULEVARc! 
[19:42:24]distrib2#7
[19:42:24]!WAVERULEVARc! !times! !WAVERULEVARb! !plus! WAVERULEVARc !times! !WAVERULEVARc! --&gt;!WAVERULEVARc! !times! !WAVERULEVARb! !plus! WAVERULEVARc 
[19:42:24]distrib2#4
[19:42:24]!WAVERULEVARa! !times! !WAVERULEVARb! !plus! !WAVERULEVARa! !times! WAVERULEVARa --&gt;WAVERULEVARa !times! !WAVERULEVARb! !plus! !WAVERULEVARa! 
[19:42:24]distrib2#9
[19:42:24]!WAVERULEVARa! !times! !WAVERULEVARb! !plus! WAVERULEVARa !times! !WAVERULEVARc! --&gt;WAVERULEVARa !times! !WAVERULEVARb! !plus! !WAVERULEVARc! 
[19:42:24]distrib2#3
[19:42:24]!WAVERULEVARa! !times! !WAVERULEVARb! !plus! !WAVERULEVARa! !times! WAVERULEVARb --&gt;!WAVERULEVARa! !times! WAVERULEVARb !plus! !WAVERULEVARb! 
[19:42:24]distrib2#5
[19:42:24]!WAVERULEVARb! !plus! !WAVERULEVARc! !times! !WAVERULEVARb! !plus! WAVERULEVARb plus WAVERULEVARc !times! !WAVERULEVARc! --&gt;!WAVERULEVARb! !plus! !WAVERULEVARc! !times! WAVERULEVARb plus WAVERULEVARc 
[19:42:24]distrib2#27
[19:42:24]!WAVERULEVARc! !times! WAVERULEVARb plus WAVERULEVARc !times! !WAVERULEVARc! --&gt;!WAVERULEVARc! !times! WAVERULEVARb plus WAVERULEVARc 
[19:42:24]distrib2#26
[19:42:24]WAVERULEVARc !times! !WAVERULEVARc! plus WAVERULEVARc !times! !WAVERULEVARc! --&gt;!WAVERULEVARc! !times! WAVERULEVARc plus WAVERULEVARc 
[19:42:24]distrib2#25
[19:42:24]WAVERULEVARb !times! !WAVERULEVARb! plus !WAVERULEVARb! !times! WAVERULEVARc --&gt;!WAVERULEVARb! !times! WAVERULEVARb plus WAVERULEVARc 
[19:42:24]distrib2#19
[19:42:24]!newvar1! !times! !newvar1! !times! !newvar2! !plus! newvar1 times newvar2 --&gt;!newvar1! !times! newvar1 times newvar2 !plus! !newvar2! 
[19:42:24]distrib2#2
[19:42:24]!WAVERULEVARa! !times! !WAVERULEVARb! !plus! !WAVERULEVARa! !times! WAVERULEVARc --&gt;!WAVERULEVARa! !times! !WAVERULEVARb! !plus! WAVERULEVARc 
[19:42:24]distrib2#8
[19:42:24]!WAVERULEVARb! !times! !WAVERULEVARb! !plus! WAVERULEVARb !times! !WAVERULEVARc! --&gt;!WAVERULEVARb! !times! WAVERULEVARb !plus! !WAVERULEVARc! 
[19:42:24]mulassoc1#36
[19:42:24]WAVERULEVARa times WAVERULEVARb !times! !WAVERULEVARc! --&gt;WAVERULEVARa times WAVERULEVARb !times! !WAVERULEVARc! 
[19:42:24]mulassoc1#35
[19:42:24]WAVERULEVARa times !WAVERULEVARb! !times! WAVERULEVARb --&gt;WAVERULEVARa times WAVERULEVARb !times! !WAVERULEVARb! 
[19:42:24]mulassoc2#33
[19:42:24]WAVERULEVARb !times! !WAVERULEVARb! times WAVERULEVARc --&gt;!WAVERULEVARb! !times! WAVERULEVARb times WAVERULEVARc 
[19:42:24]mulassoc2#32
[19:42:24]!WAVERULEVARa! !times! WAVERULEVARb times WAVERULEVARc --&gt;!WAVERULEVARa! !times! WAVERULEVARb times WAVERULEVARc 
[19:42:24]one1#1
[19:42:24]WAVERULEVARa !times! !1! --&gt;WAVERULEVARa 
[19:42:24]one1#0
[19:42:24]!1! !times! 1 --&gt;1 
[19:42:24]sumassoc1#33
[19:42:24]WAVERULEVARb !plus! !WAVERULEVARb! plus WAVERULEVARc --&gt;!WAVERULEVARb! !plus! WAVERULEVARb plus WAVERULEVARc 
[19:42:24]sumassoc1#32
[19:42:24]!WAVERULEVARa! !plus! WAVERULEVARb plus WAVERULEVARc --&gt;!WAVERULEVARa! !plus! WAVERULEVARb plus WAVERULEVARc 
[19:42:24]sumassoc2#36
[19:42:24]WAVERULEVARa plus WAVERULEVARb !plus! !WAVERULEVARc! --&gt;WAVERULEVARa plus WAVERULEVARb !plus! !WAVERULEVARc! 
[19:42:24]sumassoc2#35
[19:42:24]WAVERULEVARa plus !WAVERULEVARb! !plus! WAVERULEVARb --&gt;WAVERULEVARa plus WAVERULEVARb !plus! !WAVERULEVARb! 
[19:42:24]zero1#1
[19:42:24]WAVERULEVARa !plus! !0! --&gt;WAVERULEVARa 
[19:42:24]zero1#0
[19:42:24]!0! !plus! 0 --&gt;0 
[19:42:24]AMOUNT OF THREADS INCREASED BY ONE
[19:42:24]Got &gt;0,85 stopping annotation proccess...
[19:42:24]Annotation finished

0,882352941176471 606,0347 ms</StdOut>
      </Output>
    </UnitTestResult>
    <UnitTestResult executionId="bea847fd-dde0-4407-b032-6a891af4b3d1" testId="6fcfd395-07e8-0559-1476-c9b959558f3f" testName="EqTest10and12" computerName="WIN-9KSLI3ANNIF" duration="00:00:09.9899290" startTime="2013-09-29T19:42:25.1463631+04:00" endTime="2013-09-29T19:42:35.1719365+04:00" testType="13cdc9d9-ddb5-4fa4-a97d-d965ccfc6d4b" outcome="Passed" testListId="8c84fa94-04c1-424b-9868-57a2d4851a1d" relativeResultsDirectory="bea847fd-dde0-4407-b032-6a891af4b3d1">
      <Output>
        <StdOut>[19:42:25]distrib1#25
[19:42:25]WAVERULEVARa times WAVERULEVARc !plus! !WAVERULEVARc! --&gt;!WAVERULEVARa! !times! !WAVERULEVARc! !plus! WAVERULEVARa times WAVERULEVARc 
[19:42:25]distrib1#24
[19:42:25]WAVERULEVARa times !WAVERULEVARb! !plus! WAVERULEVARc --&gt;!WAVERULEVARa! !times! !WAVERULEVARb! !plus! WAVERULEVARa times WAVERULEVARc 
[19:42:25]distrib2#24
[19:42:25]!WAVERULEVARa! !times! WAVERULEVARb plus !WAVERULEVARa! !times! WAVERULEVARc --&gt;!WAVERULEVARa! !times! WAVERULEVARb plus WAVERULEVARc 
[19:42:25]distrib2#18
[19:42:25]!WAVERULEVARa! !times! !WAVERULEVARa! !times! !WAVERULEVARc! !plus! WAVERULEVARa times WAVERULEVARc --&gt;!WAVERULEVARa! !times! WAVERULEVARa times WAVERULEVARc !plus! !WAVERULEVARc! 
[19:42:25]distrib2#7
[19:42:25]!WAVERULEVARc! !times! !WAVERULEVARb! !plus! WAVERULEVARc !times! !WAVERULEVARc! --&gt;!WAVERULEVARc! !times! !WAVERULEVARb! !plus! WAVERULEVARc 
[19:42:25]distrib2#4
[19:42:25]!WAVERULEVARa! !times! !WAVERULEVARb! !plus! !WAVERULEVARa! !times! WAVERULEVARa --&gt;WAVERULEVARa !times! !WAVERULEVARb! !plus! !WAVERULEVARa! 
[19:42:25]distrib2#9
[19:42:25]!WAVERULEVARa! !times! !WAVERULEVARb! !plus! WAVERULEVARa !times! !WAVERULEVARc! --&gt;WAVERULEVARa !times! !WAVERULEVARb! !plus! !WAVERULEVARc! 
[19:42:25]distrib2#3
[19:42:25]!WAVERULEVARa! !times! !WAVERULEVARb! !plus! !WAVERULEVARa! !times! WAVERULEVARb --&gt;!WAVERULEVARa! !times! WAVERULEVARb !plus! !WAVERULEVARb! 
[19:42:25]distrib2#5
[19:42:25]!WAVERULEVARb! !plus! !WAVERULEVARc! !times! !WAVERULEVARb! !plus! WAVERULEVARb plus WAVERULEVARc !times! !WAVERULEVARc! --&gt;!WAVERULEVARb! !plus! !WAVERULEVARc! !times! WAVERULEVARb plus WAVERULEVARc 
[19:42:25]distrib2#27
[19:42:25]!WAVERULEVARc! !times! WAVERULEVARb plus WAVERULEVARc !times! !WAVERULEVARc! --&gt;!WAVERULEVARc! !times! WAVERULEVARb plus WAVERULEVARc 
[19:42:25]distrib2#26
[19:42:25]WAVERULEVARc !times! !WAVERULEVARc! plus WAVERULEVARc !times! !WAVERULEVARc! --&gt;!WAVERULEVARc! !times! WAVERULEVARc plus WAVERULEVARc 
[19:42:25]distrib2#25
[19:42:25]WAVERULEVARb !times! !WAVERULEVARb! plus !WAVERULEVARb! !times! WAVERULEVARc --&gt;!WAVERULEVARb! !times! WAVERULEVARb plus WAVERULEVARc 
[19:42:25]distrib2#19
[19:42:25]!newvar1! !times! !newvar1! !times! !newvar2! !plus! newvar1 times newvar2 --&gt;!newvar1! !times! newvar1 times newvar2 !plus! !newvar2! 
[19:42:25]distrib2#2
[19:42:25]!WAVERULEVARa! !times! !WAVERULEVARb! !plus! !WAVERULEVARa! !times! WAVERULEVARc --&gt;!WAVERULEVARa! !times! !WAVERULEVARb! !plus! WAVERULEVARc 
[19:42:25]distrib2#8
[19:42:25]!WAVERULEVARb! !times! !WAVERULEVARb! !plus! WAVERULEVARb !times! !WAVERULEVARc! --&gt;!WAVERULEVARb! !times! WAVERULEVARb !plus! !WAVERULEVARc! 
[19:42:25]mulassoc1#36
[19:42:25]WAVERULEVARa times WAVERULEVARb !times! !WAVERULEVARc! --&gt;WAVERULEVARa times WAVERULEVARb !times! !WAVERULEVARc! 
[19:42:25]mulassoc1#35
[19:42:25]WAVERULEVARa times !WAVERULEVARb! !times! WAVERULEVARb --&gt;WAVERULEVARa times WAVERULEVARb !times! !WAVERULEVARb! 
[19:42:25]mulassoc2#33
[19:42:25]WAVERULEVARb !times! !WAVERULEVARb! times WAVERULEVARc --&gt;!WAVERULEVARb! !times! WAVERULEVARb times WAVERULEVARc 
[19:42:25]mulassoc2#32
[19:42:25]!WAVERULEVARa! !times! WAVERULEVARb times WAVERULEVARc --&gt;!WAVERULEVARa! !times! WAVERULEVARb times WAVERULEVARc 
[19:42:25]one1#1
[19:42:25]WAVERULEVARa !times! !1! --&gt;WAVERULEVARa 
[19:42:25]one1#0
[19:42:25]!1! !times! 1 --&gt;1 
[19:42:25]sumassoc1#33
[19:42:25]WAVERULEVARb !plus! !WAVERULEVARb! plus WAVERULEVARc --&gt;!WAVERULEVARb! !plus! WAVERULEVARb plus WAVERULEVARc 
[19:42:25]sumassoc1#32
[19:42:25]!WAVERULEVARa! !plus! WAVERULEVARb plus WAVERULEVARc --&gt;!WAVERULEVARa! !plus! WAVERULEVARb plus WAVERULEVARc 
[19:42:25]sumassoc2#36
[19:42:25]WAVERULEVARa plus WAVERULEVARb !plus! !WAVERULEVARc! --&gt;WAVERULEVARa plus WAVERULEVARb !plus! !WAVERULEVARc! 
[19:42:25]sumassoc2#35
[19:42:25]WAVERULEVARa plus !WAVERULEVARb! !plus! WAVERULEVARb --&gt;WAVERULEVARa plus WAVERULEVARb !plus! !WAVERULEVARb! 
[19:42:25]zero1#1
[19:42:25]WAVERULEVARa !plus! !0! --&gt;WAVERULEVARa 
[19:42:25]zero1#0
[19:42:25]!0! !plus! 0 --&gt;0 
[19:42:35]Got &gt;0,8 stopping annotation proccess...
[19:42:35]Annotation finished

0,810526315789474 9974,5705 ms</StdOut>
      </Output>
    </UnitTestResult>
    <UnitTestResult executionId="ede85cb2-fe0e-409e-be1e-67212c828260" testId="e2f65998-3b20-0e26-38b8-52c9981a2483" testName="MeasureTest" computerName="WIN-9KSLI3ANNIF" duration="00:00:00.0181149" startTime="2013-09-29T19:42:35.8579758+04:00" endTime="2013-09-29T19:42:35.9209794+04:00" testType="13cdc9d9-ddb5-4fa4-a97d-d965ccfc6d4b" outcome="Passed" testListId="8c84fa94-04c1-424b-9868-57a2d4851a1d" relativeResultsDirectory="ede85cb2-fe0e-409e-be1e-67212c828260">
      <Output>
        <StdOut>Straight: 0 3  ms: 0
Imprint: 0 3  inverted: 1 3 0 
Inverted: 1 3 0 
Shrunk: 3</StdOut>
      </Output>
    </UnitTestResult>
    <UnitTestResult executionId="9fa69e53-f0c3-4c2e-b8cf-f7fd9dc4f212" testId="85e6bcb2-df52-7102-3542-7cc42b7e17f2" testName="SkeletonChangedEventTest" computerName="WIN-9KSLI3ANNIF" duration="00:00:00.0009962" startTime="2013-09-29T19:42:35.9789827+04:00" endTime="2013-09-29T19:42:36.0039841+04:00" testType="13cdc9d9-ddb5-4fa4-a97d-d965ccfc6d4b" outcome="Passed" testListId="8c84fa94-04c1-424b-9868-57a2d4851a1d" relativeResultsDirectory="9fa69e53-f0c3-4c2e-b8cf-f7fd9dc4f212">
    </UnitTestResult>
    <UnitTestResult executionId="105c400a-c41a-436f-9902-c712fa975a82" testId="270a9c77-5645-c159-c550-817c41a2f3a6" testName="WaveRuleCreation" computerName="WIN-9KSLI3ANNIF" duration="00:00:00.0002499" startTime="2013-09-29T19:42:36.8300314+04:00" endTime="2013-09-29T19:42:36.8780341+04:00" testType="13cdc9d9-ddb5-4fa4-a97d-d965ccfc6d4b" outcome="Passed" testListId="8c84fa94-04c1-424b-9868-57a2d4851a1d" relativeResultsDirectory="105c400a-c41a-436f-9902-c712fa975a82">
    </UnitTestResult>
    <UnitTestResult executionId="d0d49e90-be2a-4a84-8e5b-652f84b31d77" testId="fd301a13-00ce-847a-d5d8-c839f7d7638a" testName="EqTest9and10Invert" computerName="WIN-9KSLI3ANNIF" duration="00:00:00.7920441" startTime="2013-09-29T19:42:37.0080415+04:00" endTime="2013-09-29T19:42:37.8960923+04:00" testType="13cdc9d9-ddb5-4fa4-a97d-d965ccfc6d4b" outcome="Passed" testListId="8c84fa94-04c1-424b-9868-57a2d4851a1d" relativeResultsDirectory="d0d49e90-be2a-4a84-8e5b-652f84b31d77">
      <Output>
        <StdOut>[19:42:37]distrib1#25
[19:42:37]WAVERULEVARa times WAVERULEVARc !plus! !WAVERULEVARc! --&gt;!WAVERULEVARa! !times! !WAVERULEVARc! !plus! WAVERULEVARa times WAVERULEVARc 
[19:42:37]distrib1#24
[19:42:37]WAVERULEVARa times !WAVERULEVARb! !plus! WAVERULEVARc --&gt;!WAVERULEVARa! !times! !WAVERULEVARb! !plus! WAVERULEVARa times WAVERULEVARc 
[19:42:37]distrib2#24
[19:42:37]!WAVERULEVARa! !times! WAVERULEVARb plus !WAVERULEVARa! !times! WAVERULEVARc --&gt;!WAVERULEVARa! !times! WAVERULEVARb plus WAVERULEVARc 
[19:42:37]distrib2#18
[19:42:37]!WAVERULEVARa! !times! !WAVERULEVARa! !times! !WAVERULEVARc! !plus! WAVERULEVARa times WAVERULEVARc --&gt;!WAVERULEVARa! !times! WAVERULEVARa times WAVERULEVARc !plus! !WAVERULEVARc! 
[19:42:37]distrib2#7
[19:42:37]!WAVERULEVARc! !times! !WAVERULEVARb! !plus! WAVERULEVARc !times! !WAVERULEVARc! --&gt;!WAVERULEVARc! !times! !WAVERULEVARb! !plus! WAVERULEVARc 
[19:42:37]distrib2#4
[19:42:37]!WAVERULEVARa! !times! !WAVERULEVARb! !plus! !WAVERULEVARa! !times! WAVERULEVARa --&gt;WAVERULEVARa !times! !WAVERULEVARb! !plus! !WAVERULEVARa! 
[19:42:37]distrib2#9
[19:42:37]!WAVERULEVARa! !times! !WAVERULEVARb! !plus! WAVERULEVARa !times! !WAVERULEVARc! --&gt;WAVERULEVARa !times! !WAVERULEVARb! !plus! !WAVERULEVARc! 
[19:42:37]distrib2#3
[19:42:37]!WAVERULEVARa! !times! !WAVERULEVARb! !plus! !WAVERULEVARa! !times! WAVERULEVARb --&gt;!WAVERULEVARa! !times! WAVERULEVARb !plus! !WAVERULEVARb! 
[19:42:37]distrib2#5
[19:42:37]!WAVERULEVARb! !plus! !WAVERULEVARc! !times! !WAVERULEVARb! !plus! WAVERULEVARb plus WAVERULEVARc !times! !WAVERULEVARc! --&gt;!WAVERULEVARb! !plus! !WAVERULEVARc! !times! WAVERULEVARb plus WAVERULEVARc 
[19:42:37]distrib2#27
[19:42:37]!WAVERULEVARc! !times! WAVERULEVARb plus WAVERULEVARc !times! !WAVERULEVARc! --&gt;!WAVERULEVARc! !times! WAVERULEVARb plus WAVERULEVARc 
[19:42:37]distrib2#26
[19:42:37]WAVERULEVARc !times! !WAVERULEVARc! plus WAVERULEVARc !times! !WAVERULEVARc! --&gt;!WAVERULEVARc! !times! WAVERULEVARc plus WAVERULEVARc 
[19:42:37]distrib2#25
[19:42:37]WAVERULEVARb !times! !WAVERULEVARb! plus !WAVERULEVARb! !times! WAVERULEVARc --&gt;!WAVERULEVARb! !times! WAVERULEVARb plus WAVERULEVARc 
[19:42:37]distrib2#19
[19:42:37]!newvar1! !times! !newvar1! !times! !newvar2! !plus! newvar1 times newvar2 --&gt;!newvar1! !times! newvar1 times newvar2 !plus! !newvar2! 
[19:42:37]distrib2#2
[19:42:37]!WAVERULEVARa! !times! !WAVERULEVARb! !plus! !WAVERULEVARa! !times! WAVERULEVARc --&gt;!WAVERULEVARa! !times! !WAVERULEVARb! !plus! WAVERULEVARc 
[19:42:37]distrib2#8
[19:42:37]!WAVERULEVARb! !times! !WAVERULEVARb! !plus! WAVERULEVARb !times! !WAVERULEVARc! --&gt;!WAVERULEVARb! !times! WAVERULEVARb !plus! !WAVERULEVARc! 
[19:42:37]mulassoc1#36
[19:42:37]WAVERULEVARa times WAVERULEVARb !times! !WAVERULEVARc! --&gt;WAVERULEVARa times WAVERULEVARb !times! !WAVERULEVARc! 
[19:42:37]mulassoc1#35
[19:42:37]WAVERULEVARa times !WAVERULEVARb! !times! WAVERULEVARb --&gt;WAVERULEVARa times WAVERULEVARb !times! !WAVERULEVARb! 
[19:42:37]mulassoc2#33
[19:42:37]WAVERULEVARb !times! !WAVERULEVARb! times WAVERULEVARc --&gt;!WAVERULEVARb! !times! WAVERULEVARb times WAVERULEVARc 
[19:42:37]mulassoc2#32
[19:42:37]!WAVERULEVARa! !times! WAVERULEVARb times WAVERULEVARc --&gt;!WAVERULEVARa! !times! WAVERULEVARb times WAVERULEVARc 
[19:42:37]one1#1
[19:42:37]WAVERULEVARa !times! !1! --&gt;WAVERULEVARa 
[19:42:37]one1#0
[19:42:37]!1! !times! 1 --&gt;1 
[19:42:37]sumassoc1#33
[19:42:37]WAVERULEVARb !plus! !WAVERULEVARb! plus WAVERULEVARc --&gt;!WAVERULEVARb! !plus! WAVERULEVARb plus WAVERULEVARc 
[19:42:37]sumassoc1#32
[19:42:37]!WAVERULEVARa! !plus! WAVERULEVARb plus WAVERULEVARc --&gt;!WAVERULEVARa! !plus! WAVERULEVARb plus WAVERULEVARc 
[19:42:37]sumassoc2#36
[19:42:37]WAVERULEVARa plus WAVERULEVARb !plus! !WAVERULEVARc! --&gt;WAVERULEVARa plus WAVERULEVARb !plus! !WAVERULEVARc! 
[19:42:37]sumassoc2#35
[19:42:37]WAVERULEVARa plus !WAVERULEVARb! !plus! WAVERULEVARb --&gt;WAVERULEVARa plus WAVERULEVARb !plus! !WAVERULEVARb! 
[19:42:37]zero1#1
[19:42:37]WAVERULEVARa !plus! !0! --&gt;WAVERULEVARa 
[19:42:37]zero1#0
[19:42:37]!0! !plus! 0 --&gt;0 
[19:42:37]Got &gt;0,85 stopping annotation proccess...
[19:42:37]Annotation finished

0,882352941176471 723,0413 ms</StdOut>
      </Output>
    </UnitTestResult>
    <UnitTestResult executionId="cf92b1ec-0eaf-4c59-a0ee-5c653ec40724" testId="ad5ce314-cedb-b2e4-6bf8-52fbde74cdea" testName="EqTest10and12Invert" computerName="WIN-9KSLI3ANNIF" duration="00:00:11.2658840" startTime="2013-09-29T19:42:37.9770970+04:00" endTime="2013-09-29T19:42:49.2897440+04:00" testType="13cdc9d9-ddb5-4fa4-a97d-d965ccfc6d4b" outcome="Passed" testListId="8c84fa94-04c1-424b-9868-57a2d4851a1d" relativeResultsDirectory="cf92b1ec-0eaf-4c59-a0ee-5c653ec40724">
      <Output>
        <StdOut>[19:42:38]distrib1#25
[19:42:38]WAVERULEVARa times WAVERULEVARc !plus! !WAVERULEVARc! --&gt;!WAVERULEVARa! !times! !WAVERULEVARc! !plus! WAVERULEVARa times WAVERULEVARc 
[19:42:38]distrib1#24
[19:42:38]WAVERULEVARa times !WAVERULEVARb! !plus! WAVERULEVARc --&gt;!WAVERULEVARa! !times! !WAVERULEVARb! !plus! WAVERULEVARa times WAVERULEVARc 
[19:42:38]distrib2#24
[19:42:38]!WAVERULEVARa! !times! WAVERULEVARb plus !WAVERULEVARa! !times! WAVERULEVARc --&gt;!WAVERULEVARa! !times! WAVERULEVARb plus WAVERULEVARc 
[19:42:38]distrib2#18
[19:42:38]!WAVERULEVARa! !times! !WAVERULEVARa! !times! !WAVERULEVARc! !plus! WAVERULEVARa times WAVERULEVARc --&gt;!WAVERULEVARa! !times! WAVERULEVARa times WAVERULEVARc !plus! !WAVERULEVARc! 
[19:42:38]distrib2#7
[19:42:38]!WAVERULEVARc! !times! !WAVERULEVARb! !plus! WAVERULEVARc !times! !WAVERULEVARc! --&gt;!WAVERULEVARc! !times! !WAVERULEVARb! !plus! WAVERULEVARc 
[19:42:38]distrib2#4
[19:42:38]!WAVERULEVARa! !times! !WAVERULEVARb! !plus! !WAVERULEVARa! !times! WAVERULEVARa --&gt;WAVERULEVARa !times! !WAVERULEVARb! !plus! !WAVERULEVARa! 
[19:42:38]distrib2#9
[19:42:38]!WAVERULEVARa! !times! !WAVERULEVARb! !plus! WAVERULEVARa !times! !WAVERULEVARc! --&gt;WAVERULEVARa !times! !WAVERULEVARb! !plus! !WAVERULEVARc! 
[19:42:38]distrib2#3
[19:42:38]!WAVERULEVARa! !times! !WAVERULEVARb! !plus! !WAVERULEVARa! !times! WAVERULEVARb --&gt;!WAVERULEVARa! !times! WAVERULEVARb !plus! !WAVERULEVARb! 
[19:42:38]distrib2#5
[19:42:38]!WAVERULEVARb! !plus! !WAVERULEVARc! !times! !WAVERULEVARb! !plus! WAVERULEVARb plus WAVERULEVARc !times! !WAVERULEVARc! --&gt;!WAVERULEVARb! !plus! !WAVERULEVARc! !times! WAVERULEVARb plus WAVERULEVARc 
[19:42:38]distrib2#27
[19:42:38]!WAVERULEVARc! !times! WAVERULEVARb plus WAVERULEVARc !times! !WAVERULEVARc! --&gt;!WAVERULEVARc! !times! WAVERULEVARb plus WAVERULEVARc 
[19:42:38]distrib2#26
[19:42:38]WAVERULEVARc !times! !WAVERULEVARc! plus WAVERULEVARc !times! !WAVERULEVARc! --&gt;!WAVERULEVARc! !times! WAVERULEVARc plus WAVERULEVARc 
[19:42:38]distrib2#25
[19:42:38]WAVERULEVARb !times! !WAVERULEVARb! plus !WAVERULEVARb! !times! WAVERULEVARc --&gt;!WAVERULEVARb! !times! WAVERULEVARb plus WAVERULEVARc 
[19:42:38]distrib2#19
[19:42:38]!newvar1! !times! !newvar1! !times! !newvar2! !plus! newvar1 times newvar2 --&gt;!newvar1! !times! newvar1 times newvar2 !plus! !newvar2! 
[19:42:38]distrib2#2
[19:42:38]!WAVERULEVARa! !times! !WAVERULEVARb! !plus! !WAVERULEVARa! !times! WAVERULEVARc --&gt;!WAVERULEVARa! !times! !WAVERULEVARb! !plus! WAVERULEVARc 
[19:42:38]distrib2#8
[19:42:38]!WAVERULEVARb! !times! !WAVERULEVARb! !plus! WAVERULEVARb !times! !WAVERULEVARc! --&gt;!WAVERULEVARb! !times! WAVERULEVARb !plus! !WAVERULEVARc! 
[19:42:38]mulassoc1#36
[19:42:38]WAVERULEVARa times WAVERULEVARb !times! !WAVERULEVARc! --&gt;WAVERULEVARa times WAVERULEVARb !times! !WAVERULEVARc! 
[19:42:38]mulassoc1#35
[19:42:38]WAVERULEVARa times !WAVERULEVARb! !times! WAVERULEVARb --&gt;WAVERULEVARa times WAVERULEVARb !times! !WAVERULEVARb! 
[19:42:38]mulassoc2#33
[19:42:38]WAVERULEVARb !times! !WAVERULEVARb! times WAVERULEVARc --&gt;!WAVERULEVARb! !times! WAVERULEVARb times WAVERULEVARc 
[19:42:38]mulassoc2#32
[19:42:38]!WAVERULEVARa! !times! WAVERULEVARb times WAVERULEVARc --&gt;!WAVERULEVARa! !times! WAVERULEVARb times WAVERULEVARc 
[19:42:38]one1#1
[19:42:38]WAVERULEVARa !times! !1! --&gt;WAVERULEVARa 
[19:42:38]one1#0
[19:42:38]!1! !times! 1 --&gt;1 
[19:42:38]sumassoc1#33
[19:42:38]WAVERULEVARb !plus! !WAVERULEVARb! plus WAVERULEVARc --&gt;!WAVERULEVARb! !plus! WAVERULEVARb plus WAVERULEVARc 
[19:42:38]sumassoc1#32
[19:42:38]!WAVERULEVARa! !plus! WAVERULEVARb plus WAVERULEVARc --&gt;!WAVERULEVARa! !plus! WAVERULEVARb plus WAVERULEVARc 
[19:42:38]sumassoc2#36
[19:42:38]WAVERULEVARa plus WAVERULEVARb !plus! !WAVERULEVARc! --&gt;WAVERULEVARa plus WAVERULEVARb !plus! !WAVERULEVARc! 
[19:42:38]sumassoc2#35
[19:42:38]WAVERULEVARa plus !WAVERULEVARb! !plus! WAVERULEVARb --&gt;WAVERULEVARa plus WAVERULEVARb !plus! !WAVERULEVARb! 
[19:42:38]zero1#1
[19:42:38]WAVERULEVARa !plus! !0! --&gt;WAVERULEVARa 
[19:42:38]zero1#0
[19:42:38]!0! !plus! 0 --&gt;0 
[19:42:46]InvertedGoalM: 0 9 6  InvertedGoalM: 0 15 0  newMeasure: 0 0 0 4 4 
[19:42:49]InvertedGoalM: 0 9 6  InvertedGoalM: 0 15 0  newMeasure: 0 0 0 4 4 
[19:42:49]Got &gt;0,8 stopping annotation proccess...
[19:42:49]Annotation finished

0,810526315789474 11252,6436 ms</StdOut>
      </Output>
    </UnitTestResult>
    <UnitTestResult executionId="03574a46-4ffa-4ba6-925f-0f73b46ede8a" testId="576df516-a06e-cbda-4372-6f7c3fff16bb" testName="ShrunkMeasureTest" computerName="WIN-9KSLI3ANNIF" duration="00:00:00.0012381" startTime="2013-09-29T19:42:49.7787720+04:00" endTime="2013-09-29T19:42:50.2197972+04:00" testType="13cdc9d9-ddb5-4fa4-a97d-d965ccfc6d4b" outcome="Passed" testListId="8c84fa94-04c1-424b-9868-57a2d4851a1d" relativeResultsDirectory="03574a46-4ffa-4ba6-925f-0f73b46ede8a">
      <Output>
        <StdOut>t1: 0 2 0  t2: 0 0 1 0 
Shrunk: 0 1 0</StdOut>
      </Output>
    </UnitTestResult>
  </Results>
</TestRun>