﻿<?xml version="1.0" encoding="UTF-8"?>
<TestRun id="fa341ca4-fa5f-42b1-82f5-79e3db2480b6" name="adm@WIN-9KSLI3ANNIF 2013-09-29 16:02:57" runUser="WIN-9KSLI3ANNIF\adm" xmlns="http://microsoft.com/schemas/VisualStudio/TeamTest/2010">
  <TestSettings name="Local" id="f789abc8-73bb-4f73-92a6-32f2c32f0bdb">
    <Description>These are default test settings for a local test run.</Description>
    <Deployment enabled="false" runDeploymentRoot="adm_WIN-9KSLI3ANNIF 2013-09-29 16_02_57">
      <DeploymentItem filename="C:\Users\adm\repos\sempomat\mathSearchWeb\mathsearch\mathsearch\bin\Debug\mathsearch.dll" />
    </Deployment>
    <Execution>
      <TestTypeSpecific />
      <AgentRule name="Execution Agents">
      </AgentRule>
    </Execution>
  </TestSettings>
  <Times creation="2013-09-29T16:02:57.7982339+04:00" queuing="2013-09-29T16:02:59.3603232+04:00" start="2013-09-29T16:02:59.7063430+04:00" finish="2013-09-29T16:03:23.0106759+04:00" />
  <ResultSummary outcome="Completed">
    <Counters total="7" executed="7" passed="7" error="0" failed="0" timeout="0" aborted="0" inconclusive="0" passedButRunAborted="0" notRunnable="0" notExecuted="0" disconnected="0" warning="0" completed="0" inProgress="0" pending="0" />
  </ResultSummary>
  <TestDefinitions>
    <UnitTest name="MeasureTest" storage="c:\users\adm\repos\sempomat\mathsearchweb\unittest\bin\debug\unittest.dll" id="e2f65998-3b20-0e26-38b8-52c9981a2483">
      <Execution id="a7e94322-b3f5-45ec-88de-d99e3efbed2a" />
      <TestMethod codeBase="C:/Users/adm/repos/sempomat/mathSearchWeb/UnitTest/bin/Debug/UnitTest.DLL" adapterTypeName="Microsoft.VisualStudio.TestTools.TestTypes.Unit.UnitTestAdapter, Microsoft.VisualStudio.QualityTools.Tips.UnitTest.Adapter, Version=10.0.0.0, Culture=neutral, PublicKeyToken=b03f5f7f11d50a3a" className="UnitTest.CreateWaveRules, UnitTest, Version=1.0.0.0, Culture=neutral, PublicKeyToken=null" name="MeasureTest" />
    </UnitTest>
    <UnitTest name="SkeletonChangedEventTest" storage="c:\users\adm\repos\sempomat\mathsearchweb\unittest\bin\debug\unittest.dll" id="85e6bcb2-df52-7102-3542-7cc42b7e17f2">
      <Execution id="73f7928e-5f84-4a17-830f-6589bd126d10" />
      <TestMethod codeBase="C:/Users/adm/repos/sempomat/mathSearchWeb/UnitTest/bin/Debug/UnitTest.DLL" adapterTypeName="Microsoft.VisualStudio.TestTools.TestTypes.Unit.UnitTestAdapter, Microsoft.VisualStudio.QualityTools.Tips.UnitTest.Adapter, Version=10.0.0.0, Culture=neutral, PublicKeyToken=b03f5f7f11d50a3a" className="UnitTest.CreateWaveRules, UnitTest, Version=1.0.0.0, Culture=neutral, PublicKeyToken=null" name="SkeletonChangedEventTest" />
    </UnitTest>
    <UnitTest name="WaveRuleCreation" storage="c:\users\adm\repos\sempomat\mathsearchweb\unittest\bin\debug\unittest.dll" id="270a9c77-5645-c159-c550-817c41a2f3a6">
      <Execution id="e6ad46e8-548f-4e6d-961b-4e21e355c998" />
      <TestMethod codeBase="C:/Users/adm/repos/sempomat/mathSearchWeb/UnitTest/bin/Debug/UnitTest.DLL" adapterTypeName="Microsoft.VisualStudio.TestTools.TestTypes.Unit.UnitTestAdapter, Microsoft.VisualStudio.QualityTools.Tips.UnitTest.Adapter, Version=10.0.0.0, Culture=neutral, PublicKeyToken=b03f5f7f11d50a3a" className="UnitTest.CreateWaveRules, UnitTest, Version=1.0.0.0, Culture=neutral, PublicKeyToken=null" name="WaveRuleCreation" />
    </UnitTest>
    <UnitTest name="AnnotationsTest" storage="c:\users\adm\repos\sempomat\mathsearchweb\unittest\bin\debug\unittest.dll" id="7852ec17-7c31-d106-ae6d-07757101c242">
      <Execution id="2bbea3bb-97a7-439d-bdd8-6904ca3438d4" />
      <TestMethod codeBase="C:/Users/adm/repos/sempomat/mathSearchWeb/UnitTest/bin/Debug/UnitTest.DLL" adapterTypeName="Microsoft.VisualStudio.TestTools.TestTypes.Unit.UnitTestAdapter, Microsoft.VisualStudio.QualityTools.Tips.UnitTest.Adapter, Version=10.0.0.0, Culture=neutral, PublicKeyToken=b03f5f7f11d50a3a" className="UnitTest.EqTest, UnitTest, Version=1.0.0.0, Culture=neutral, PublicKeyToken=null" name="AnnotationsTest" />
    </UnitTest>
    <UnitTest name="EqTest10and9" storage="c:\users\adm\repos\sempomat\mathsearchweb\unittest\bin\debug\unittest.dll" id="c4c68891-9565-84fe-3e09-f64c27c76596">
      <Execution id="83864d9b-f5fc-4bff-9429-812cd745c75b" />
      <TestMethod codeBase="C:/Users/adm/repos/sempomat/mathSearchWeb/UnitTest/bin/Debug/UnitTest.DLL" adapterTypeName="Microsoft.VisualStudio.TestTools.TestTypes.Unit.UnitTestAdapter, Microsoft.VisualStudio.QualityTools.Tips.UnitTest.Adapter, Version=10.0.0.0, Culture=neutral, PublicKeyToken=b03f5f7f11d50a3a" className="UnitTest.EqTest, UnitTest, Version=1.0.0.0, Culture=neutral, PublicKeyToken=null" name="EqTest10and9" />
    </UnitTest>
    <UnitTest name="EqTest9and10" storage="c:\users\adm\repos\sempomat\mathsearchweb\unittest\bin\debug\unittest.dll" id="285714f1-3b5b-ec00-6271-e623a56ca068">
      <Execution id="e66d0297-8050-466f-a21c-f54885624b7a" />
      <TestMethod codeBase="C:/Users/adm/repos/sempomat/mathSearchWeb/UnitTest/bin/Debug/UnitTest.DLL" adapterTypeName="Microsoft.VisualStudio.TestTools.TestTypes.Unit.UnitTestAdapter, Microsoft.VisualStudio.QualityTools.Tips.UnitTest.Adapter, Version=10.0.0.0, Culture=neutral, PublicKeyToken=b03f5f7f11d50a3a" className="UnitTest.EqTest, UnitTest, Version=1.0.0.0, Culture=neutral, PublicKeyToken=null" name="EqTest9and10" />
    </UnitTest>
    <UnitTest name="EqTest10and12" storage="c:\users\adm\repos\sempomat\mathsearchweb\unittest\bin\debug\unittest.dll" id="6fcfd395-07e8-0559-1476-c9b959558f3f">
      <Execution id="153b08bb-4855-4d8c-b9a5-9497b8c479c6" />
      <TestMethod codeBase="C:/Users/adm/repos/sempomat/mathSearchWeb/UnitTest/bin/Debug/UnitTest.DLL" adapterTypeName="Microsoft.VisualStudio.TestTools.TestTypes.Unit.UnitTestAdapter, Microsoft.VisualStudio.QualityTools.Tips.UnitTest.Adapter, Version=10.0.0.0, Culture=neutral, PublicKeyToken=b03f5f7f11d50a3a" className="UnitTest.EqTest, UnitTest, Version=1.0.0.0, Culture=neutral, PublicKeyToken=null" name="EqTest10and12" />
    </UnitTest>
  </TestDefinitions>
  <TestLists>
    <TestList name="Results Not in a List" id="8c84fa94-04c1-424b-9868-57a2d4851a1d" />
    <TestList name="All Loaded Results" id="19431567-8539-422a-85d7-44ee4e166bda" />
  </TestLists>
  <TestEntries>
    <TestEntry testId="7852ec17-7c31-d106-ae6d-07757101c242" executionId="2bbea3bb-97a7-439d-bdd8-6904ca3438d4" testListId="8c84fa94-04c1-424b-9868-57a2d4851a1d" />
    <TestEntry testId="285714f1-3b5b-ec00-6271-e623a56ca068" executionId="e66d0297-8050-466f-a21c-f54885624b7a" testListId="8c84fa94-04c1-424b-9868-57a2d4851a1d" />
    <TestEntry testId="c4c68891-9565-84fe-3e09-f64c27c76596" executionId="83864d9b-f5fc-4bff-9429-812cd745c75b" testListId="8c84fa94-04c1-424b-9868-57a2d4851a1d" />
    <TestEntry testId="6fcfd395-07e8-0559-1476-c9b959558f3f" executionId="153b08bb-4855-4d8c-b9a5-9497b8c479c6" testListId="8c84fa94-04c1-424b-9868-57a2d4851a1d" />
    <TestEntry testId="e2f65998-3b20-0e26-38b8-52c9981a2483" executionId="a7e94322-b3f5-45ec-88de-d99e3efbed2a" testListId="8c84fa94-04c1-424b-9868-57a2d4851a1d" />
    <TestEntry testId="85e6bcb2-df52-7102-3542-7cc42b7e17f2" executionId="73f7928e-5f84-4a17-830f-6589bd126d10" testListId="8c84fa94-04c1-424b-9868-57a2d4851a1d" />
    <TestEntry testId="270a9c77-5645-c159-c550-817c41a2f3a6" executionId="e6ad46e8-548f-4e6d-961b-4e21e355c998" testListId="8c84fa94-04c1-424b-9868-57a2d4851a1d" />
  </TestEntries>
  <Results>
    <UnitTestResult executionId="2bbea3bb-97a7-439d-bdd8-6904ca3438d4" testId="7852ec17-7c31-d106-ae6d-07757101c242" testName="AnnotationsTest" computerName="WIN-9KSLI3ANNIF" duration="00:00:04.1658870" startTime="2013-09-29T16:02:59.8703524+04:00" endTime="2013-09-29T16:03:06.1347107+04:00" testType="13cdc9d9-ddb5-4fa4-a97d-d965ccfc6d4b" outcome="Passed" testListId="8c84fa94-04c1-424b-9868-57a2d4851a1d" relativeResultsDirectory="2bbea3bb-97a7-439d-bdd8-6904ca3438d4">
      <Output>
        <StdOut>Unification unsorted results count: 1589
[16:03:01]Journal init

1589</StdOut>
      </Output>
    </UnitTestResult>
    <UnitTestResult executionId="e66d0297-8050-466f-a21c-f54885624b7a" testId="285714f1-3b5b-ec00-6271-e623a56ca068" testName="EqTest9and10" computerName="WIN-9KSLI3ANNIF" duration="00:00:00.5419020" startTime="2013-09-29T16:03:06.2567177+04:00" endTime="2013-09-29T16:03:06.8417511+04:00" testType="13cdc9d9-ddb5-4fa4-a97d-d965ccfc6d4b" outcome="Passed" testListId="8c84fa94-04c1-424b-9868-57a2d4851a1d" relativeResultsDirectory="e66d0297-8050-466f-a21c-f54885624b7a">
      <Output>
        <StdOut>[16:03:06]distrib1#25
[16:03:06]WAVERULEVARa times WAVERULEVARc !plus! !WAVERULEVARc! --&gt;!WAVERULEVARa! !times! !WAVERULEVARc! !plus! WAVERULEVARa times WAVERULEVARc 
[16:03:06]distrib1#24
[16:03:06]WAVERULEVARa times !WAVERULEVARb! !plus! WAVERULEVARc --&gt;!WAVERULEVARa! !times! !WAVERULEVARb! !plus! WAVERULEVARa times WAVERULEVARc 
[16:03:06]distrib2#24
[16:03:06]!WAVERULEVARa! !times! WAVERULEVARb plus !WAVERULEVARa! !times! WAVERULEVARc --&gt;!WAVERULEVARa! !times! WAVERULEVARb plus WAVERULEVARc 
[16:03:06]distrib2#18
[16:03:06]!WAVERULEVARa! !times! !WAVERULEVARa! !times! !WAVERULEVARc! !plus! WAVERULEVARa times WAVERULEVARc --&gt;!WAVERULEVARa! !times! WAVERULEVARa times WAVERULEVARc !plus! !WAVERULEVARc! 
[16:03:06]distrib2#7
[16:03:06]!WAVERULEVARc! !times! !WAVERULEVARb! !plus! WAVERULEVARc !times! !WAVERULEVARc! --&gt;!WAVERULEVARc! !times! !WAVERULEVARb! !plus! WAVERULEVARc 
[16:03:06]distrib2#4
[16:03:06]!WAVERULEVARa! !times! !WAVERULEVARb! !plus! !WAVERULEVARa! !times! WAVERULEVARa --&gt;WAVERULEVARa !times! !WAVERULEVARb! !plus! !WAVERULEVARa! 
[16:03:06]distrib2#9
[16:03:06]!WAVERULEVARa! !times! !WAVERULEVARb! !plus! WAVERULEVARa !times! !WAVERULEVARc! --&gt;WAVERULEVARa !times! !WAVERULEVARb! !plus! !WAVERULEVARc! 
[16:03:06]distrib2#3
[16:03:06]!WAVERULEVARa! !times! !WAVERULEVARb! !plus! !WAVERULEVARa! !times! WAVERULEVARb --&gt;!WAVERULEVARa! !times! WAVERULEVARb !plus! !WAVERULEVARb! 
[16:03:06]distrib2#5
[16:03:06]!WAVERULEVARb! !plus! !WAVERULEVARc! !times! !WAVERULEVARb! !plus! WAVERULEVARb plus WAVERULEVARc !times! !WAVERULEVARc! --&gt;!WAVERULEVARb! !plus! !WAVERULEVARc! !times! WAVERULEVARb plus WAVERULEVARc 
[16:03:06]distrib2#27
[16:03:06]!WAVERULEVARc! !times! WAVERULEVARb plus WAVERULEVARc !times! !WAVERULEVARc! --&gt;!WAVERULEVARc! !times! WAVERULEVARb plus WAVERULEVARc 
[16:03:06]distrib2#26
[16:03:06]WAVERULEVARc !times! !WAVERULEVARc! plus WAVERULEVARc !times! !WAVERULEVARc! --&gt;!WAVERULEVARc! !times! WAVERULEVARc plus WAVERULEVARc 
[16:03:06]distrib2#25
[16:03:06]WAVERULEVARb !times! !WAVERULEVARb! plus !WAVERULEVARb! !times! WAVERULEVARc --&gt;!WAVERULEVARb! !times! WAVERULEVARb plus WAVERULEVARc 
[16:03:06]distrib2#19
[16:03:06]!newvar1! !times! !newvar1! !times! !newvar2! !plus! newvar1 times newvar2 --&gt;!newvar1! !times! newvar1 times newvar2 !plus! !newvar2! 
[16:03:06]distrib2#2
[16:03:06]!WAVERULEVARa! !times! !WAVERULEVARb! !plus! !WAVERULEVARa! !times! WAVERULEVARc --&gt;!WAVERULEVARa! !times! !WAVERULEVARb! !plus! WAVERULEVARc 
[16:03:06]distrib2#8
[16:03:06]!WAVERULEVARb! !times! !WAVERULEVARb! !plus! WAVERULEVARb !times! !WAVERULEVARc! --&gt;!WAVERULEVARb! !times! WAVERULEVARb !plus! !WAVERULEVARc! 
[16:03:06]mulassoc1#36
[16:03:06]WAVERULEVARa times WAVERULEVARb !times! !WAVERULEVARc! --&gt;WAVERULEVARa times WAVERULEVARb !times! !WAVERULEVARc! 
[16:03:06]mulassoc1#35
[16:03:06]WAVERULEVARa times !WAVERULEVARb! !times! WAVERULEVARb --&gt;WAVERULEVARa times WAVERULEVARb !times! !WAVERULEVARb! 
[16:03:06]mulassoc2#33
[16:03:06]WAVERULEVARb !times! !WAVERULEVARb! times WAVERULEVARc --&gt;!WAVERULEVARb! !times! WAVERULEVARb times WAVERULEVARc 
[16:03:06]mulassoc2#32
[16:03:06]!WAVERULEVARa! !times! WAVERULEVARb times WAVERULEVARc --&gt;!WAVERULEVARa! !times! WAVERULEVARb times WAVERULEVARc 
[16:03:06]one1#1
[16:03:06]WAVERULEVARa !times! !1! --&gt;WAVERULEVARa 
[16:03:06]one1#0
[16:03:06]!1! !times! 1 --&gt;1 
[16:03:06]sumassoc1#33
[16:03:06]WAVERULEVARb !plus! !WAVERULEVARb! plus WAVERULEVARc --&gt;!WAVERULEVARb! !plus! WAVERULEVARb plus WAVERULEVARc 
[16:03:06]sumassoc1#32
[16:03:06]!WAVERULEVARa! !plus! WAVERULEVARb plus WAVERULEVARc --&gt;!WAVERULEVARa! !plus! WAVERULEVARb plus WAVERULEVARc 
[16:03:06]sumassoc2#36
[16:03:06]WAVERULEVARa plus WAVERULEVARb !plus! !WAVERULEVARc! --&gt;WAVERULEVARa plus WAVERULEVARb !plus! !WAVERULEVARc! 
[16:03:06]sumassoc2#35
[16:03:06]WAVERULEVARa plus !WAVERULEVARb! !plus! WAVERULEVARb --&gt;WAVERULEVARa plus WAVERULEVARb !plus! !WAVERULEVARb! 
[16:03:06]zero1#1
[16:03:06]WAVERULEVARa !plus! !0! --&gt;WAVERULEVARa 
[16:03:06]zero1#0
[16:03:06]!0! !plus! 0 --&gt;0 
[16:03:06]Got &gt;0,85 stopping annotation proccess...
[16:03:06]Annotation finished

0,882352941176471 521,0298 ms</StdOut>
      </Output>
    </UnitTestResult>
    <UnitTestResult executionId="83864d9b-f5fc-4bff-9429-812cd745c75b" testId="c4c68891-9565-84fe-3e09-f64c27c76596" testName="EqTest10and9" computerName="WIN-9KSLI3ANNIF" duration="00:00:00.5181145" startTime="2013-09-29T16:03:06.9077549+04:00" endTime="2013-09-29T16:03:07.4727872+04:00" testType="13cdc9d9-ddb5-4fa4-a97d-d965ccfc6d4b" outcome="Passed" testListId="8c84fa94-04c1-424b-9868-57a2d4851a1d" relativeResultsDirectory="83864d9b-f5fc-4bff-9429-812cd745c75b">
      <Output>
        <StdOut>[16:03:06]distrib1#25
[16:03:06]WAVERULEVARa times WAVERULEVARc !plus! !WAVERULEVARc! --&gt;!WAVERULEVARa! !times! !WAVERULEVARc! !plus! WAVERULEVARa times WAVERULEVARc 
[16:03:06]distrib1#24
[16:03:06]WAVERULEVARa times !WAVERULEVARb! !plus! WAVERULEVARc --&gt;!WAVERULEVARa! !times! !WAVERULEVARb! !plus! WAVERULEVARa times WAVERULEVARc 
[16:03:06]distrib2#24
[16:03:06]!WAVERULEVARa! !times! WAVERULEVARb plus !WAVERULEVARa! !times! WAVERULEVARc --&gt;!WAVERULEVARa! !times! WAVERULEVARb plus WAVERULEVARc 
[16:03:06]distrib2#18
[16:03:06]!WAVERULEVARa! !times! !WAVERULEVARa! !times! !WAVERULEVARc! !plus! WAVERULEVARa times WAVERULEVARc --&gt;!WAVERULEVARa! !times! WAVERULEVARa times WAVERULEVARc !plus! !WAVERULEVARc! 
[16:03:06]distrib2#7
[16:03:06]!WAVERULEVARc! !times! !WAVERULEVARb! !plus! WAVERULEVARc !times! !WAVERULEVARc! --&gt;!WAVERULEVARc! !times! !WAVERULEVARb! !plus! WAVERULEVARc 
[16:03:06]distrib2#4
[16:03:06]!WAVERULEVARa! !times! !WAVERULEVARb! !plus! !WAVERULEVARa! !times! WAVERULEVARa --&gt;WAVERULEVARa !times! !WAVERULEVARb! !plus! !WAVERULEVARa! 
[16:03:06]distrib2#9
[16:03:06]!WAVERULEVARa! !times! !WAVERULEVARb! !plus! WAVERULEVARa !times! !WAVERULEVARc! --&gt;WAVERULEVARa !times! !WAVERULEVARb! !plus! !WAVERULEVARc! 
[16:03:06]distrib2#3
[16:03:06]!WAVERULEVARa! !times! !WAVERULEVARb! !plus! !WAVERULEVARa! !times! WAVERULEVARb --&gt;!WAVERULEVARa! !times! WAVERULEVARb !plus! !WAVERULEVARb! 
[16:03:06]distrib2#5
[16:03:06]!WAVERULEVARb! !plus! !WAVERULEVARc! !times! !WAVERULEVARb! !plus! WAVERULEVARb plus WAVERULEVARc !times! !WAVERULEVARc! --&gt;!WAVERULEVARb! !plus! !WAVERULEVARc! !times! WAVERULEVARb plus WAVERULEVARc 
[16:03:06]distrib2#27
[16:03:06]!WAVERULEVARc! !times! WAVERULEVARb plus WAVERULEVARc !times! !WAVERULEVARc! --&gt;!WAVERULEVARc! !times! WAVERULEVARb plus WAVERULEVARc 
[16:03:06]distrib2#26
[16:03:06]WAVERULEVARc !times! !WAVERULEVARc! plus WAVERULEVARc !times! !WAVERULEVARc! --&gt;!WAVERULEVARc! !times! WAVERULEVARc plus WAVERULEVARc 
[16:03:06]distrib2#25
[16:03:06]WAVERULEVARb !times! !WAVERULEVARb! plus !WAVERULEVARb! !times! WAVERULEVARc --&gt;!WAVERULEVARb! !times! WAVERULEVARb plus WAVERULEVARc 
[16:03:06]distrib2#19
[16:03:06]!newvar1! !times! !newvar1! !times! !newvar2! !plus! newvar1 times newvar2 --&gt;!newvar1! !times! newvar1 times newvar2 !plus! !newvar2! 
[16:03:06]distrib2#2
[16:03:06]!WAVERULEVARa! !times! !WAVERULEVARb! !plus! !WAVERULEVARa! !times! WAVERULEVARc --&gt;!WAVERULEVARa! !times! !WAVERULEVARb! !plus! WAVERULEVARc 
[16:03:06]distrib2#8
[16:03:06]!WAVERULEVARb! !times! !WAVERULEVARb! !plus! WAVERULEVARb !times! !WAVERULEVARc! --&gt;!WAVERULEVARb! !times! WAVERULEVARb !plus! !WAVERULEVARc! 
[16:03:06]mulassoc1#36
[16:03:06]WAVERULEVARa times WAVERULEVARb !times! !WAVERULEVARc! --&gt;WAVERULEVARa times WAVERULEVARb !times! !WAVERULEVARc! 
[16:03:06]mulassoc1#35
[16:03:06]WAVERULEVARa times !WAVERULEVARb! !times! WAVERULEVARb --&gt;WAVERULEVARa times WAVERULEVARb !times! !WAVERULEVARb! 
[16:03:06]mulassoc2#33
[16:03:06]WAVERULEVARb !times! !WAVERULEVARb! times WAVERULEVARc --&gt;!WAVERULEVARb! !times! WAVERULEVARb times WAVERULEVARc 
[16:03:06]mulassoc2#32
[16:03:06]!WAVERULEVARa! !times! WAVERULEVARb times WAVERULEVARc --&gt;!WAVERULEVARa! !times! WAVERULEVARb times WAVERULEVARc 
[16:03:06]one1#1
[16:03:06]WAVERULEVARa !times! !1! --&gt;WAVERULEVARa 
[16:03:06]one1#0
[16:03:06]!1! !times! 1 --&gt;1 
[16:03:06]sumassoc1#33
[16:03:06]WAVERULEVARb !plus! !WAVERULEVARb! plus WAVERULEVARc --&gt;!WAVERULEVARb! !plus! WAVERULEVARb plus WAVERULEVARc 
[16:03:06]sumassoc1#32
[16:03:06]!WAVERULEVARa! !plus! WAVERULEVARb plus WAVERULEVARc --&gt;!WAVERULEVARa! !plus! WAVERULEVARb plus WAVERULEVARc 
[16:03:06]sumassoc2#36
[16:03:06]WAVERULEVARa plus WAVERULEVARb !plus! !WAVERULEVARc! --&gt;WAVERULEVARa plus WAVERULEVARb !plus! !WAVERULEVARc! 
[16:03:06]sumassoc2#35
[16:03:06]WAVERULEVARa plus !WAVERULEVARb! !plus! WAVERULEVARb --&gt;WAVERULEVARa plus WAVERULEVARb !plus! !WAVERULEVARb! 
[16:03:06]zero1#1
[16:03:06]WAVERULEVARa !plus! !0! --&gt;WAVERULEVARa 
[16:03:06]zero1#0
[16:03:06]!0! !plus! 0 --&gt;0 
[16:03:07]AMOUNT OF THREADS INCREASED BY ONE
[16:03:07]Got &gt;0,85 stopping annotation proccess...
[16:03:07]Annotation finished

0,882352941176471 505,0289 ms</StdOut>
      </Output>
    </UnitTestResult>
    <UnitTestResult executionId="153b08bb-4855-4d8c-b9a5-9497b8c479c6" testId="6fcfd395-07e8-0559-1476-c9b959558f3f" testName="EqTest10and12" computerName="WIN-9KSLI3ANNIF" duration="00:00:14.8357953" startTime="2013-09-29T16:03:07.5237901+04:00" endTime="2013-09-29T16:03:22.4096416+04:00" testType="13cdc9d9-ddb5-4fa4-a97d-d965ccfc6d4b" outcome="Passed" testListId="8c84fa94-04c1-424b-9868-57a2d4851a1d" relativeResultsDirectory="153b08bb-4855-4d8c-b9a5-9497b8c479c6">
      <Output>
        <StdOut>[16:03:07]distrib1#25
[16:03:07]WAVERULEVARa times WAVERULEVARc !plus! !WAVERULEVARc! --&gt;!WAVERULEVARa! !times! !WAVERULEVARc! !plus! WAVERULEVARa times WAVERULEVARc 
[16:03:07]distrib1#24
[16:03:07]WAVERULEVARa times !WAVERULEVARb! !plus! WAVERULEVARc --&gt;!WAVERULEVARa! !times! !WAVERULEVARb! !plus! WAVERULEVARa times WAVERULEVARc 
[16:03:07]distrib2#24
[16:03:07]!WAVERULEVARa! !times! WAVERULEVARb plus !WAVERULEVARa! !times! WAVERULEVARc --&gt;!WAVERULEVARa! !times! WAVERULEVARb plus WAVERULEVARc 
[16:03:07]distrib2#18
[16:03:07]!WAVERULEVARa! !times! !WAVERULEVARa! !times! !WAVERULEVARc! !plus! WAVERULEVARa times WAVERULEVARc --&gt;!WAVERULEVARa! !times! WAVERULEVARa times WAVERULEVARc !plus! !WAVERULEVARc! 
[16:03:07]distrib2#7
[16:03:07]!WAVERULEVARc! !times! !WAVERULEVARb! !plus! WAVERULEVARc !times! !WAVERULEVARc! --&gt;!WAVERULEVARc! !times! !WAVERULEVARb! !plus! WAVERULEVARc 
[16:03:07]distrib2#4
[16:03:07]!WAVERULEVARa! !times! !WAVERULEVARb! !plus! !WAVERULEVARa! !times! WAVERULEVARa --&gt;WAVERULEVARa !times! !WAVERULEVARb! !plus! !WAVERULEVARa! 
[16:03:07]distrib2#9
[16:03:07]!WAVERULEVARa! !times! !WAVERULEVARb! !plus! WAVERULEVARa !times! !WAVERULEVARc! --&gt;WAVERULEVARa !times! !WAVERULEVARb! !plus! !WAVERULEVARc! 
[16:03:07]distrib2#3
[16:03:07]!WAVERULEVARa! !times! !WAVERULEVARb! !plus! !WAVERULEVARa! !times! WAVERULEVARb --&gt;!WAVERULEVARa! !times! WAVERULEVARb !plus! !WAVERULEVARb! 
[16:03:07]distrib2#5
[16:03:07]!WAVERULEVARb! !plus! !WAVERULEVARc! !times! !WAVERULEVARb! !plus! WAVERULEVARb plus WAVERULEVARc !times! !WAVERULEVARc! --&gt;!WAVERULEVARb! !plus! !WAVERULEVARc! !times! WAVERULEVARb plus WAVERULEVARc 
[16:03:07]distrib2#27
[16:03:07]!WAVERULEVARc! !times! WAVERULEVARb plus WAVERULEVARc !times! !WAVERULEVARc! --&gt;!WAVERULEVARc! !times! WAVERULEVARb plus WAVERULEVARc 
[16:03:07]distrib2#26
[16:03:07]WAVERULEVARc !times! !WAVERULEVARc! plus WAVERULEVARc !times! !WAVERULEVARc! --&gt;!WAVERULEVARc! !times! WAVERULEVARc plus WAVERULEVARc 
[16:03:07]distrib2#25
[16:03:07]WAVERULEVARb !times! !WAVERULEVARb! plus !WAVERULEVARb! !times! WAVERULEVARc --&gt;!WAVERULEVARb! !times! WAVERULEVARb plus WAVERULEVARc 
[16:03:07]distrib2#19
[16:03:07]!newvar1! !times! !newvar1! !times! !newvar2! !plus! newvar1 times newvar2 --&gt;!newvar1! !times! newvar1 times newvar2 !plus! !newvar2! 
[16:03:07]distrib2#2
[16:03:07]!WAVERULEVARa! !times! !WAVERULEVARb! !plus! !WAVERULEVARa! !times! WAVERULEVARc --&gt;!WAVERULEVARa! !times! !WAVERULEVARb! !plus! WAVERULEVARc 
[16:03:07]distrib2#8
[16:03:07]!WAVERULEVARb! !times! !WAVERULEVARb! !plus! WAVERULEVARb !times! !WAVERULEVARc! --&gt;!WAVERULEVARb! !times! WAVERULEVARb !plus! !WAVERULEVARc! 
[16:03:07]mulassoc1#36
[16:03:07]WAVERULEVARa times WAVERULEVARb !times! !WAVERULEVARc! --&gt;WAVERULEVARa times WAVERULEVARb !times! !WAVERULEVARc! 
[16:03:07]mulassoc1#35
[16:03:07]WAVERULEVARa times !WAVERULEVARb! !times! WAVERULEVARb --&gt;WAVERULEVARa times WAVERULEVARb !times! !WAVERULEVARb! 
[16:03:07]mulassoc2#33
[16:03:07]WAVERULEVARb !times! !WAVERULEVARb! times WAVERULEVARc --&gt;!WAVERULEVARb! !times! WAVERULEVARb times WAVERULEVARc 
[16:03:07]mulassoc2#32
[16:03:07]!WAVERULEVARa! !times! WAVERULEVARb times WAVERULEVARc --&gt;!WAVERULEVARa! !times! WAVERULEVARb times WAVERULEVARc 
[16:03:07]one1#1
[16:03:07]WAVERULEVARa !times! !1! --&gt;WAVERULEVARa 
[16:03:07]one1#0
[16:03:07]!1! !times! 1 --&gt;1 
[16:03:07]sumassoc1#33
[16:03:07]WAVERULEVARb !plus! !WAVERULEVARb! plus WAVERULEVARc --&gt;!WAVERULEVARb! !plus! WAVERULEVARb plus WAVERULEVARc 
[16:03:07]sumassoc1#32
[16:03:07]!WAVERULEVARa! !plus! WAVERULEVARb plus WAVERULEVARc --&gt;!WAVERULEVARa! !plus! WAVERULEVARb plus WAVERULEVARc 
[16:03:07]sumassoc2#36
[16:03:07]WAVERULEVARa plus WAVERULEVARb !plus! !WAVERULEVARc! --&gt;WAVERULEVARa plus WAVERULEVARb !plus! !WAVERULEVARc! 
[16:03:07]sumassoc2#35
[16:03:07]WAVERULEVARa plus !WAVERULEVARb! !plus! WAVERULEVARb --&gt;WAVERULEVARa plus WAVERULEVARb !plus! !WAVERULEVARb! 
[16:03:07]zero1#1
[16:03:07]WAVERULEVARa !plus! !0! --&gt;WAVERULEVARa 
[16:03:07]zero1#0
[16:03:07]!0! !plus! 0 --&gt;0 
[16:03:20]AMOUNT OF THREADS INCREASED BY ONE
[16:03:22]Got &gt;0,8 stopping annotation proccess...
[16:03:22]Annotation finished

0,810526315789474 14820,8478 ms</StdOut>
      </Output>
    </UnitTestResult>
    <UnitTestResult executionId="a7e94322-b3f5-45ec-88de-d99e3efbed2a" testId="e2f65998-3b20-0e26-38b8-52c9981a2483" testName="MeasureTest" computerName="WIN-9KSLI3ANNIF" duration="00:00:00.0185797" startTime="2013-09-29T16:03:22.5036469+04:00" endTime="2013-09-29T16:03:22.5586501+04:00" testType="13cdc9d9-ddb5-4fa4-a97d-d965ccfc6d4b" outcome="Passed" testListId="8c84fa94-04c1-424b-9868-57a2d4851a1d" relativeResultsDirectory="a7e94322-b3f5-45ec-88de-d99e3efbed2a">
      <Output>
        <StdOut>Straight: 1 2  ms: 0
Imprint: 1 2  inverted: 2 2 0 
Inverted: 2 2 0</StdOut>
      </Output>
    </UnitTestResult>
    <UnitTestResult executionId="73f7928e-5f84-4a17-830f-6589bd126d10" testId="85e6bcb2-df52-7102-3542-7cc42b7e17f2" testName="SkeletonChangedEventTest" computerName="WIN-9KSLI3ANNIF" duration="00:00:00.0009845" startTime="2013-09-29T16:03:22.6146533+04:00" endTime="2013-09-29T16:03:22.6516554+04:00" testType="13cdc9d9-ddb5-4fa4-a97d-d965ccfc6d4b" outcome="Passed" testListId="8c84fa94-04c1-424b-9868-57a2d4851a1d" relativeResultsDirectory="73f7928e-5f84-4a17-830f-6589bd126d10">
    </UnitTestResult>
    <UnitTestResult executionId="e6ad46e8-548f-4e6d-961b-4e21e355c998" testId="270a9c77-5645-c159-c550-817c41a2f3a6" testName="WaveRuleCreation" computerName="WIN-9KSLI3ANNIF" duration="00:00:00.0002455" startTime="2013-09-29T16:03:22.7186592+04:00" endTime="2013-09-29T16:03:22.7616617+04:00" testType="13cdc9d9-ddb5-4fa4-a97d-d965ccfc6d4b" outcome="Passed" testListId="8c84fa94-04c1-424b-9868-57a2d4851a1d" relativeResultsDirectory="e6ad46e8-548f-4e6d-961b-4e21e355c998">
    </UnitTestResult>
  </Results>
</TestRun>